{
  "type": "tab",
  "id": "119598d9.ee6a67",
  "label": "Sheet 1",
  "flow": [
    {
      "id": "76884627.8977b8",
      "type": "inject",
      "z": "119598d9.ee6a67",
      "name": "",
      "topic": "",
      "payload": "",
      "payloadType": "date",
      "repeat": "",
      "crontab": "",
      "once": false,
      "x": 107,
      "y": 130,
      "wires": [
        [
          "23460c38.dcb9f4"
        ]
      ]
    },
    {
      "id": "23460c38.dcb9f4",
      "type": "sentiment",
      "z": "119598d9.ee6a67",
      "name": "",
      "x": 302,
      "y": 213,
      "wires": [
        []
      ]
    },
    {
      "id": "76884627.8977b8",
      "type": "inject",
      "z": "119598d9.ee6a67",
      "name": "",
      "topic": "",
      "payload": "",
      "payloadType": "date",
      "repeat": "",
      "crontab": "",
      "once": false,
      "x": 107,
      "y": 130,
      "wires": [
        [
          "23460c38.dcb9f4",
          "25943e44.da6bc2"
        ]
      ]
    },
    {
      "id": "23460c38.dcb9f4",
      "type": "sentiment",
      "z": "119598d9.ee6a67",
      "name": "",
      "x": 302,
      "y": 213,
      "wires": [
        []
      ]
    },
    {
      "id": "25943e44.da6bc2",
      "type": "debug",
      "z": "119598d9.ee6a67",
      "name": "",
      "active": true,
      "console": "false",
      "complete": "false",
      "x": 584,
      "y": 102,
      "wires": []
    }
  ]
}